[gd_scene load_steps=3 format=2]

[ext_resource path="res://gui/theme.tres" type="Theme" id=1]
[ext_resource path="res://gui/icons/energy.svg" type="Texture" id=2]

[node name="CenterContainer" type="CenterContainer"]
anchor_right = 1.0
anchor_bottom = 1.0

[node name="HBoxContainer" type="HBoxContainer" parent="."]
margin_left = 458.0
margin_top = 268.0
margin_right = 566.0
margin_bottom = 332.0
size_flags_horizontal = 3
size_flags_vertical = 3
theme = ExtResource( 1 )

[node name="TextureRect" type="TextureRect" parent="HBoxContainer"]
margin_right = 64.0
margin_bottom = 64.0
texture = ExtResource( 2 )

[node name="Label" type="Label" parent="HBoxContainer"]
margin_left = 68.0
margin_top = 8.0
margin_right = 108.0
margin_bottom = 56.0
text = "+1"
