[gd_scene load_steps=1 format=2]

[sub_resource id=1 type="Shader"]

resource_name = "Shader Nodetree"
code = "shader_type spatial;
render_mode blend_mix, depth_draw_always, cull_back, diffuse_burley, specular_schlick_ggx;



void node_bsdf_principled(vec4 color, float subsurface, vec4 subsurface_color,
        float metallic, float specular, float roughness, float clearcoat,
        float clearcoat_roughness, float anisotropy, float transmission,
        float IOR, out vec3 albedo, out float sss_strength_out,
        out float metallic_out, out float specular_out,
        out float roughness_out, out float clearcoat_out,
        out float clearcoat_gloss_out, out float anisotropy_out,
        out float transmission_out, out float ior) {
    metallic = clamp(metallic, 0.0, 1.0);
    transmission = clamp(transmission, 0.0, 1.0);

    subsurface = subsurface * (1.0 - metallic);

    albedo = mix(color.rgb, subsurface_color.rgb, subsurface);
    sss_strength_out = subsurface;
    metallic_out = metallic;
    specular_out = pow((IOR - 1.0)/(IOR + 1.0), 2)/0.08;
    roughness_out = roughness;
    clearcoat_out = clearcoat * (1.0 - transmission);
    clearcoat_gloss_out = 1.0 - clearcoat_roughness;
    anisotropy_out = clamp(anisotropy, 0.0, 1.0);
    transmission_out = (1.0 - transmission) * (1.0 - metallic);
    ior = IOR;
}

void vertex () {
}

void fragment () {
	
	// node: 'Principled BSDF'
	// type: 'ShaderNodeBsdfPrincipled'
	// input sockets handling
	vec4 node0_in0_basecolor = vec4(0.08965103328227997, 0.08965103328227997,
		0.08965103328227997, 1.0);
	float node0_in1_subsurface = float(0.0);
	vec3 node0_in2_subsurfaceradius = vec3(1.0, 0.20000000298023224,
		0.10000000149011612);
	vec4 node0_in3_subsurfacecolor = vec4(0.800000011920929, 0.800000011920929,
		0.800000011920929, 1.0);
	float node0_in4_metallic = float(0.0);
	float node0_in5_specular = float(0.5);
	float node0_in6_speculartint = float(0.0);
	float node0_in7_roughness = float(0.5);
	float node0_in8_anisotropic = float(0.0);
	float node0_in9_anisotropicrotation = float(0.0);
	float node0_in10_sheen = float(0.0);
	float node0_in11_sheentint = float(0.5);
	float node0_in12_clearcoat = float(0.0);
	float node0_in13_clearcoatroughness = float(0.029999999329447746);
	float node0_in14_ior = float(1.4500000476837158);
	float node0_in15_transmission = float(0.0);
	float node0_in16_transmissionroughness = float(0.0);
	vec4 node0_in17_emission = vec4(0.0, 0.0, 0.0, 1.0);
	float node0_in18_alpha = float(1.0);
	vec3 node0_in19_normal = NORMAL;
	vec3 node0_in20_clearcoatnormal = vec3(0.0, 0.0, 0.0);
	vec3 node0_in21_tangent = TANGENT;
	// output sockets definitions
	vec3 node0_bsdf_out0_albedo;
	float node0_bsdf_out1_sss_strength;
	float node0_bsdf_out3_specular;
	float node0_bsdf_out2_metallic;
	float node0_bsdf_out4_roughness;
	float node0_bsdf_out5_clearcoat;
	float node0_bsdf_out6_clearcoat_gloss;
	float node0_bsdf_out7_anisotropy;
	float node0_bsdf_out8_transmission;
	float node0_bsdf_out9_ior;
	
	node_bsdf_principled(node0_in0_basecolor, node0_in1_subsurface,
		node0_in3_subsurfacecolor, node0_in4_metallic, node0_in5_specular,
		node0_in7_roughness, node0_in12_clearcoat, node0_in13_clearcoatroughness,
		node0_in8_anisotropic, node0_in15_transmission, node0_in14_ior,
		node0_bsdf_out0_albedo, node0_bsdf_out1_sss_strength, node0_bsdf_out2_metallic,
		node0_bsdf_out3_specular, node0_bsdf_out4_roughness, node0_bsdf_out5_clearcoat,
		node0_bsdf_out6_clearcoat_gloss, node0_bsdf_out7_anisotropy,
		node0_bsdf_out8_transmission, node0_bsdf_out9_ior);
	
	
	ALBEDO = node0_bsdf_out0_albedo;
	SSS_STRENGTH = node0_bsdf_out1_sss_strength;
	SPECULAR = node0_bsdf_out3_specular;
	METALLIC = node0_bsdf_out2_metallic;
	ROUGHNESS = node0_bsdf_out4_roughness;
	CLEARCOAT = node0_bsdf_out5_clearcoat;
	CLEARCOAT_GLOSS = node0_bsdf_out6_clearcoat_gloss;
	NORMAL = node0_in19_normal;
	// uncomment it when you need it
	// TRANSMISSION = vec3(1.0, 1.0, 1.0) * node0_bsdf_out8_transmission;
	// uncomment it when you are modifing TANGENT
	// TANGENT = normalize(cross(cross(node0_in21_tangent, NORMAL), NORMAL));
	// BINORMAL = cross(TANGENT, NORMAL);
	// uncomment it when you have tangent(UV) set
	// ANISOTROPY = node0_bsdf_out7_anisotropy;
}
"

[sub_resource id=2 type="ShaderMaterial"]

resource_name = ""
shader = SubResource(1)

[sub_resource id=3 type="ArrayMesh"]

resource_name = "Cube"
surfaces/0 = {
	"material":SubResource(2),
	"primitive":4,
	"arrays":[
		Vector3Array(0.72, 0.706294, 0.432, 0.8, 0.0, 0.8, 0.8, 0.0, 0.48, 0.8, 0.0, 0.8, 0.432, 0.706294, 0.72, 0.48, 0.0, 0.8, -0.8, 0.0, -0.48, -0.48, 0.0, -0.8, -0.48, 0.0, -0.48, -0.8, 0.0, -0.8, -0.432, 0.706294, -0.72, -0.48, 0.0, -0.8, -0.8, 0.0, 0.8, -0.72, 0.706294, 0.432, -0.8, 0.0, 0.48, 0.432, 0.706294, 0.72, 0.72, 0.706294, 0.432, 0.432, 0.706294, 0.432, -0.72, 0.706294, 0.72, -0.432, 0.706294, 0.432, -0.72, 0.706294, 0.432, -0.432, 0.706294, 0.72, -0.144, 0.706294, 0.432, -0.144, 0.706294, 0.72, 0.144, 0.706294, 0.432, 0.144, 0.706294, 0.72, 0.48, 0.0, -0.8, 0.72, 0.706294, -0.72, 0.8, 0.0, -0.8, 0.16, 0.0, -0.8, 0.432, 0.706294, -0.72, 0.48, 0.0, -0.8, -0.16, 0.0, -0.8, 0.144, 0.706294, -0.72, 0.16, 0.0, -0.8, -0.48, 0.0, -0.8, -0.144, 0.706294, -0.72, -0.16, 0.0, -0.8, 0.48, 0.0, -0.48, 0.8, 0.0, -0.8, 0.8, 0.0, -0.48, 0.16, 0.0, -0.48, 0.48, 0.0, -0.8, -0.16, 0.0, -0.48, 0.16, 0.0, -0.8, -0.48, 0.0, -0.48, -0.16, 0.0, -0.8, -0.48, 0.0, 0.8, -0.72, 0.706294, 0.72, -0.8, 0.0, 0.8, -0.16, 0.0, 0.8, -0.432, 0.706294, 0.72, -0.48, 0.0, 0.8, 0.16, 0.0, 0.8, -0.144, 0.706294, 0.72, -0.16, 0.0, 0.8, 0.48, 0.0, 0.8, 0.144, 0.706294, 0.72, 0.16, 0.0, 0.8, -0.48, 0.0, 0.8, -0.16, 0.0, 0.48, -0.16, 0.0, 0.8, -0.48, 0.0, 0.48, -0.16, 0.0, 0.16, -0.48, 0.0, 0.16, -0.16, 0.0, -0.16, -0.48, 0.0, -0.16, -0.16, 0.0, -0.48, 0.16, 0.0, 0.48, 0.16, 0.0, 0.8, 0.16, 0.0, 0.16, 0.16, 0.0, -0.16, 0.16, 0.0, -0.48, 0.48, 0.0, 0.48, 0.48, 0.0, 0.8, 0.48, 0.0, 0.16, 0.48, 0.0, -0.16, 0.16, 0.0, -0.16, 0.48, 0.0, -0.16, 0.8, 0.0, 0.48, 0.8, 0.0, 0.8, 0.8, 0.0, 0.16, 0.8, 0.0, -0.16, 0.8, 0.0, -0.48, 0.144, 0.706294, -0.432, 0.432, 0.706294, -0.72, 0.144, 0.706294, -0.72, 0.432, 0.706294, -0.144, 0.144, 1.09049, -0.144, 0.144, 0.706294, -0.144, 0.144, 0.706294, 0.144, 0.432, 0.706294, -0.144, 0.144, 0.706294, -0.144, 0.432, 0.706294, 0.144, 0.144, 0.706294, 0.144, -0.144, 0.706294, -0.432, -0.144, 0.706294, -0.72, -0.144, 0.706294, -0.144, 0.144, 0.706294, -0.432, -0.144, 0.706294, -0.432, -0.144, 0.706294, 0.144, 0.144, 0.706294, -0.144, -0.144, 0.706294, -0.144, -0.432, 0.706294, -0.432, -0.144, 0.706294, -0.72, -0.432, 0.706294, -0.72, -0.144, 0.706294, -0.432, -0.144, 1.09049, -0.144, -0.144, 0.706294, -0.144, -0.432, 0.706294, 0.144, -0.432, 0.706294, -0.144, -0.432, 0.706294, 0.144, -0.72, 0.706294, -0.432, -0.432, 0.706294, -0.72, -0.72, 0.706294, -0.72, -0.72, 0.706294, -0.144, -0.432, 0.706294, -0.432, -0.72, 0.706294, 0.144, -0.432, 0.706294, -0.144, -0.72, 0.706294, -0.144, -0.72, 0.706294, 0.432, -0.432, 0.706294, 0.144, -0.72, 0.706294, 0.144, 0.432, 0.706294, -0.432, 0.72, 0.706294, -0.72, 0.432, 0.706294, -0.144, 0.72, 0.706294, -0.432, 0.432, 0.706294, 0.144, 0.72, 0.706294, -0.144, 0.432, 0.706294, -0.144, 0.432, 0.706294, 0.432, 0.72, 0.706294, 0.144, -0.8, 0.0, -0.48, -0.72, 0.706294, -0.72, -0.8, 0.0, -0.8, -0.8, 0.0, -0.16, -0.72, 0.706294, -0.432, -0.8, 0.0, -0.48, -0.8, 0.0, 0.16, -0.72, 0.706294, -0.144, -0.8, 0.0, -0.16, -0.8, 0.0, 0.48, -0.72, 0.706294, 0.144, -0.8, 0.0, 0.16, -0.8, 0.0, 0.8, -0.8, 0.0, 0.48, -0.8, 0.0, 0.16, -0.8, 0.0, -0.16, 0.72, 0.706294, -0.72, 0.8, 0.0, -0.48, 0.8, 0.0, -0.8, 0.72, 0.706294, -0.432, 0.8, 0.0, -0.16, 0.8, 0.0, -0.48, 0.72, 0.706294, -0.144, 0.8, 0.0, 0.16, 0.8, 0.0, -0.16, 0.72, 0.706294, 0.144, 0.8, 0.0, 0.48, 0.8, 0.0, 0.16, 0.144, 1.09049, -0.144, 0.432, 1.09049, -0.432, 0.144, 1.09049, -0.432, -0.432, 1.09049, -0.144, -0.144, 1.09049, -0.432, -0.432, 1.09049, -0.432, -0.432, 0.706294, -0.144, -0.432, 1.09049, -0.432, -0.432, 0.706294, -0.432, -0.432, 0.706294, -0.432, -0.144, 1.09049, -0.432, -0.144, 0.706294, -0.432, 0.144, 0.706294, -0.432, 0.432, 1.09049, -0.432, 0.432, 0.706294, -0.432, 0.432, 0.706294, -0.432, 0.432, 1.09049, -0.144, 0.432, 0.706294, -0.144, -0.144, 0.706294, -0.144, -0.432, 1.09049, -0.144, -0.432, 0.706294, -0.144, 0.144, 0.706294, -0.144, 0.144, 1.09049, -0.432, 0.144, 0.706294, -0.432, 0.72, 0.706294, 0.432, 0.72, 0.706294, 0.72, 0.8, 0.0, 0.8, 0.8, 0.0, 0.8, 0.72, 0.706294, 0.72, 0.432, 0.706294, 0.72, -0.8, 0.0, -0.8, -0.8, 0.0, -0.8, -0.72, 0.706294, -0.72, -0.432, 0.706294, -0.72, -0.8, 0.0, 0.8, -0.72, 0.706294, 0.72, -0.72, 0.706294, 0.432, 0.72, 0.706294, 0.72, 0.144, 0.706294, 0.72, 0.432, 0.706294, 0.72, 0.432, 0.706294, 0.432, 0.48, 0.0, -0.8, 0.432, 0.706294, -0.72, 0.72, 0.706294, -0.72, 0.16, 0.0, -0.8, 0.144, 0.706294, -0.72, 0.432, 0.706294, -0.72, -0.16, 0.0, -0.8, -0.144, 0.706294, -0.72, 0.144, 0.706294, -0.72, -0.48, 0.0, -0.8, -0.432, 0.706294, -0.72, -0.144, 0.706294, -0.72, 0.48, 0.0, -0.48, 0.48, 0.0, -0.8, 0.8, 0.0, -0.8, 0.16, 0.0, -0.8, -0.16, 0.0, -0.8, -0.48, 0.0, 0.8, -0.432, 0.706294, 0.72, -0.72, 0.706294, 0.72, -0.16, 0.0, 0.8, -0.144, 0.706294, 0.72, -0.432, 0.706294, 0.72, 0.16, 0.0, 0.8, 0.144, 0.706294, 0.72, -0.144, 0.706294, 0.72, 0.48, 0.0, 0.8, 0.432, 0.706294, 0.72, 0.144, 0.706294, 0.72, 0.432, 1.09049, -0.144, -0.144, 0.706294, 0.144, -0.144, 0.706294, -0.432, -0.144, 1.09049, -0.432, -0.144, 1.09049, -0.144, -0.432, 0.706294, -0.144, -0.72, 0.706294, 0.144, -0.432, 0.706294, 0.144, -0.432, 0.706294, -0.144, 0.72, 0.706294, -0.144, 0.72, 0.706294, 0.144, -0.8, 0.0, -0.48, -0.72, 0.706294, -0.432, -0.72, 0.706294, -0.72, -0.8, 0.0, -0.16, -0.72, 0.706294, -0.144, -0.72, 0.706294, -0.432, -0.72, 0.706294, 0.144, -0.72, 0.706294, 0.144, 0.72, 0.706294, -0.72, 0.72, 0.706294, -0.432, 0.8, 0.0, -0.48, 0.72, 0.706294, -0.432, 0.72, 0.706294, -0.144, 0.8, 0.0, -0.16, 0.72, 0.706294, 0.144, 0.72, 0.706294, 0.144, 0.144, 1.09049, -0.144, 0.432, 1.09049, -0.144, 0.432, 1.09049, -0.432, -0.432, 1.09049, -0.144, -0.144, 1.09049, -0.144, -0.144, 1.09049, -0.432, -0.432, 1.09049, -0.144, -0.432, 1.09049, -0.432, 0.144, 1.09049, -0.432, 0.432, 1.09049, -0.432, -0.144, 1.09049, -0.144, 0.144, 0.706294, -0.144, 0.144, 1.09049, -0.144, 0.144, 1.09049, -0.432),
		Vector3Array(0.993646, 0.112548, 0.0, 0.993646, 0.112548, 0.0, 0.993646, 0.112548, 0.0, 0.0, 0.112548, 0.993646, 0.0, 0.112548, 0.993646, 0.0, 0.112548, 0.993646, 0.0, -1.0, 0.0, 0.0, -1.0, 0.0, 0.0, -1.0, 0.0, 0.0, 0.112548, -0.993646, 0.0, 0.112548, -0.993646, 0.0, 0.112548, -0.993646, -0.993646, 0.112548, 0.0, -0.993646, 0.112548, 0.0, -0.993646, 0.112548, 0.0, 0.0, 1.0, 0.0, 0.0, 1.0, 0.0, 0.0, 1.0, 0.0, 0.0, 1.0, 0.0, 0.0, 1.0, 0.0, 0.0, 1.0, 0.0, 0.0, 1.0, 0.0, 0.0, 1.0, 0.0, 0.0, 1.0, 0.0, 0.0, 1.0, 0.0, 0.0, 1.0, 0.0, 0.0, 0.112548, -0.993646, 0.0, 0.112548, -0.993646, 0.0, 0.112548, -0.993646, 0.0, 0.112548, -0.993646, 0.0, 0.112548, -0.993646, 0.0, 0.112548, -0.993646, 0.0, 0.112548, -0.993646, 0.0, 0.112548, -0.993646, 0.0, 0.112548, -0.993646, 0.0, 0.112548, -0.993646, 0.0, 0.112548, -0.993646, 0.0, 0.112548, -0.993646, 0.0, -1.0, 0.0, 0.0, -1.0, 0.0, 0.0, -1.0, 0.0, 0.0, -1.0, 0.0, 0.0, -1.0, 0.0, 0.0, -1.0, 0.0, 0.0, -1.0, 0.0, 0.0, -1.0, 0.0, 0.0, -1.0, 0.0, 0.0, 0.112548, 0.993646, 0.0, 0.112548, 0.993646, 0.0, 0.112548, 0.993646, 0.0, 0.112548, 0.993646, 0.0, 0.112548, 0.993646, 0.0, 0.112548, 0.993646, 0.0, 0.112548, 0.993646, 0.0, 0.112548, 0.993646, 0.0, 0.112548, 0.993646, 0.0, 0.112548, 0.993646, 0.0, 0.112548, 0.993646, 0.0, 0.112548, 0.993646, 0.0, -1.0, 0.0, 0.0, -1.0, 0.0, 0.0, -1.0, 0.0, 0.0, -1.0, 0.0, 0.0, -1.0, 0.0, 0.0, -1.0, 0.0, 0.0, -1.0, 0.0, 0.0, -1.0, 0.0, 0.0, -1.0, 0.0, 0.0, -1.0, 0.0, 0.0, -1.0, 0.0, 0.0, -1.0, 0.0, 0.0, -1.0, 0.0, 0.0, -1.0, 0.0, 0.0, -1.0, 0.0, 0.0, -1.0, 0.0, 0.0, -1.0, 0.0, 0.0, -1.0, 0.0, 0.0, -1.0, 0.0, 0.0, -1.0, 0.0, 0.0, -1.0, 0.0, 0.0, -1.0, 0.0, 0.0, -1.0, 0.0, 0.0, -1.0, 0.0, 0.0, -1.0, 0.0, 0.0, 1.0, 0.0, 0.0, 1.0, 0.0, 0.0, 1.0, 0.0, 0.0, 0.0, 1.0, 0.0, 0.0, 1.0, 0.0, 0.0, 1.0, 0.0, 1.0, 0.0, 0.0, 1.0, 0.0, 0.0, 1.0, 0.0, 0.0, 1.0, 0.0, 0.0, 1.0, 0.0, 0.0, 1.0, 0.0, 0.0, 1.0, 0.0, 0.0, 1.0, 0.0, 0.0, 1.0, 0.0, 0.0, 1.0, 0.0, 0.0, 1.0, 0.0, 0.0, 1.0, 0.0, 0.0, 1.0, 0.0, 0.0, 1.0, 0.0, 0.0, 1.0, 0.0, 0.0, 1.0, 0.0, 1.0, 0.0, -1.34671e-07, 1.0, 0.0, -1.34671e-07, 1.0, 0.0, -1.34671e-07, 0.0, 1.0, 0.0, 0.0, 1.0, 0.0, 0.0, 1.0, 0.0, 0.0, 1.0, 0.0, 0.0, 1.0, 0.0, 0.0, 1.0, 0.0, 0.0, 1.0, 0.0, 0.0, 1.0, 0.0, -2.11061e-07, 1.0, 0.0, -2.11061e-07, 1.0, 0.0, -2.11061e-07, 1.0, 0.0, 1.48246e-07, 1.0, 0.0, 1.48246e-07, 1.0, 0.0, 1.48246e-07, 1.0, 0.0, 0.0, 1.0, 0.0, 0.0, 1.0, 0.0, 0.0, 1.0, 0.0, 0.0, 1.0, 0.0, -1.48246e-07, 1.0, 0.0, -1.48246e-07, 1.0, 0.0, -1.48246e-07, 1.0, 0.0, -1.48246e-07, 1.0, 0.0, -1.48246e-07, 1.0, 0.0, -0.993646, 0.112548, 0.0, -0.993646, 0.112548, 0.0, -0.993646, 0.112548, 0.0, -0.993646, 0.112548, 0.0, -0.993646, 0.112548, 0.0, -0.993646, 0.112548, 0.0, -0.993646, 0.112548, 0.0, -0.993646, 0.112548, 0.0, -0.993646, 0.112548, 0.0, -0.993646, 0.112548, 0.0, -0.993646, 0.112548, 0.0, -0.993646, 0.112548, 0.0, 0.0, -1.0, 0.0, 0.0, -1.0, 0.0, 0.0, -1.0, 0.0, 0.0, -1.0, 0.0, 0.993646, 0.112548, 0.0, 0.993646, 0.112548, 0.0, 0.993646, 0.112548, 0.0, 0.993646, 0.112548, 0.0, 0.993646, 0.112548, 0.0, 0.993646, 0.112548, 0.0, 0.993646, 0.112548, 0.0, 0.993646, 0.112548, 0.0, 0.993646, 0.112548, 0.0, 0.993646, 0.112548, 0.0, 0.993646, 0.112548, 0.0, 0.993646, 0.112548, 0.0, 0.0, 1.0, 0.0, 0.0, 1.0, 0.0, 0.0, 1.0, 0.0, 0.0, 1.0, 0.0, 0.0, 1.0, 0.0, 0.0, 1.0, 0.0, -1.0, 0.0, 0.0, -1.0, 0.0, 0.0, -1.0, 0.0, 0.0, 0.0, 0.0, -1.0, 0.0, 0.0, -1.0, 0.0, 0.0, -1.0, 0.0, 0.0, -1.0, 0.0, 0.0, -1.0, 0.0, 0.0, -1.0, 1.0, 0.0, 0.0, 1.0, 0.0, 0.0, 1.0, 0.0, 0.0, 0.0, 0.0, 1.0, 0.0, 0.0, 1.0, 0.0, 0.0, 1.0, -1.0, 0.0, 0.0, -1.0, 0.0, 0.0, -1.0, 0.0, 0.0, 0.993646, 0.112548, 0.0, 0.993646, 0.112548, 0.0, 0.993646, 0.112548, 0.0, 0.0, 0.112547, 0.993646, 0.0, 0.112547, 0.993646, 0.0, 0.112547, 0.993646, 0.0, -1.0, 0.0, 0.0, 0.112547, -0.993646, 0.0, 0.112547, -0.993646, 0.0, 0.112547, -0.993646, -0.993646, 0.112548, 0.0, -0.993646, 0.112548, 0.0, -0.993646, 0.112548, 0.0, 0.0, 1.0, 0.0, 0.0, 1.0, 0.0, 0.0, 1.0, 0.0, 0.0, 1.0, 0.0, 0.0, 0.112548, -0.993646, 0.0, 0.112548, -0.993646, 0.0, 0.112548, -0.993646, 0.0, 0.112547, -0.993646, 0.0, 0.112547, -0.993646, 0.0, 0.112547, -0.993646, 0.0, 0.112548, -0.993646, 0.0, 0.112548, -0.993646, 0.0, 0.112548, -0.993646, 0.0, 0.112548, -0.993646, 0.0, 0.112548, -0.993646, 0.0, 0.112548, -0.993646, 0.0, -1.0, 0.0, 0.0, -1.0, 0.0, 0.0, -1.0, 0.0, 0.0, -1.0, 0.0, 0.0, -1.0, 0.0, 0.0, 0.112548, 0.993646, 0.0, 0.112548, 0.993646, 0.0, 0.112548, 0.993646, 0.0, 0.112547, 0.993646, 0.0, 0.112547, 0.993646, 0.0, 0.112547, 0.993646, 0.0, 0.112548, 0.993646, 0.0, 0.112548, 0.993646, 0.0, 0.112548, 0.993646, 0.0, 0.112548, 0.993646, 0.0, 0.112548, 0.993646, 0.0, 0.112548, 0.993646, 0.0, 0.0, 1.0, 0.0, 1.0, 0.0, 1.0, 0.0, 0.0, 1.0, 0.0, 0.0, 1.0, 0.0, 0.0, 0.0, 1.0, 0.0, 3.59306e-07, 1.0, 0.0, 3.59306e-07, 1.0, 0.0, 3.59306e-07, 1.0, 0.0, 0.0, 1.0, 0.0, 0.0, 1.0, 0.0, -0.993646, 0.112548, 0.0, -0.993646, 0.112548, 0.0, -0.993646, 0.112548, 0.0, -0.993646, 0.112548, 0.0, -0.993646, 0.112548, 0.0, -0.993646, 0.112548, 0.0, -0.993646, 0.112548, 0.0, -0.993646, 0.112548, 0.0, 0.993646, 0.112548, 0.0, 0.993646, 0.112548, 0.0, 0.993646, 0.112548, 0.0, 0.993646, 0.112548, 0.0, 0.993646, 0.112548, 0.0, 0.993646, 0.112548, 0.0, 0.993646, 0.112548, 0.0, 0.993646, 0.112548, 0.0, 0.0, 1.0, 0.0, 0.0, 1.0, 0.0, 0.0, 1.0, 0.0, 0.0, 1.0, 0.0, 0.0, 1.0, 0.0, 0.0, 1.0, 0.0, -1.0, 0.0, 0.0, 0.0, 0.0, -1.0, 0.0, 0.0, -1.0, 1.0, 0.0, 0.0, 0.0, 0.0, 1.0, -1.0, 0.0, 6.73353e-08, -1.0, 0.0, 6.73353e-08, -1.0, 0.0, 6.73353e-08),
		FloatArray(-0.112292, 0.991388, -0.0673746, 1.0, -0.112292, 0.991388, -0.0673745, 1.0, -0.112292, 0.991388, -0.0673745, 1.0, 1.0, 0.0, 0.0, -1.0, 1.0, 0.0, 0.0, -1.0, 1.0, 0.0, 0.0, -1.0, 1.0, 0.0, 0.0, -1.0, 1.0, 0.0, 0.0, -1.0, 1.0, 0.0, 0.0, -1.0, 1.0, 0.0, 0.0, -1.0, 1.0, 0.0, 0.0, -1.0, 1.0, 0.0, 0.0, -1.0, 0.112292, 0.991388, -0.0673745, -1.0, 0.112292, 0.991388, -0.0673746, -1.0, 0.112292, 0.991388, -0.0673745, -1.0, 1.0, 0.0, 0.0, -1.0, 1.0, 0.0, 0.0, -1.0, 1.0, 0.0, 0.0, -1.0, 1.0, 0.0, 0.0, -1.0, 1.0, 0.0, 0.0, -1.0, 1.0, 0.0, 0.0, -1.0, 1.0, 0.0, 0.0, -1.0, 1.0, 0.0, 0.0, -1.0, 1.0, 0.0, 0.0, -1.0, 1.0, 0.0, 0.0, -1.0, 1.0, 0.0, 0.0, -1.0, 1.0, 0.0, 0.0, -1.0, 1.0, 0.0, 0.0, -1.0, 1.0, 0.0, 0.0, -1.0, 1.0, 0.0, 0.0, -1.0, 1.0, 0.0, 0.0, -1.0, 1.0, 0.0, 0.0, -1.0, 1.0, 0.0, 0.0, -1.0, 1.0, 0.0, 0.0, -1.0, 1.0, 0.0, 0.0, -1.0, 1.0, 0.0, 0.0, -1.0, 1.0, 0.0, 0.0, -1.0, 1.0, 0.0, 0.0, -1.0, 1.0, 0.0, 0.0, -1.0, 1.0, 0.0, 0.0, -1.0, 1.0, 0.0, 0.0, -1.0, 1.0, 0.0, 0.0, -1.0, 1.0, 0.0, 0.0, -1.0, 1.0, 0.0, 0.0, -1.0, 1.0, 0.0, 0.0, -1.0, 1.0, 0.0, 0.0, -1.0, 1.0, 0.0, 0.0, -1.0, 1.0, 0.0, 0.0, -1.0, 1.0, 0.0, 0.0, -1.0, 1.0, 0.0, 0.0, -1.0, 1.0, 0.0, 0.0, -1.0, 1.0, 0.0, 0.0, -1.0, 1.0, 0.0, 0.0, -1.0, 1.0, 0.0, 0.0, -1.0, 1.0, 0.0, 0.0, -1.0, 1.0, 0.0, 0.0, -1.0, 1.0, 0.0, 0.0, -1.0, 1.0, 0.0, 0.0, -1.0, 1.0, 0.0, 0.0, -1.0, 1.0, 0.0, 0.0, -1.0, 1.0, 0.0, 0.0, -1.0, 1.0, 0.0, 0.0, -1.0, 1.0, 0.0, 0.0, -1.0, 1.0, 0.0, 0.0, -1.0, 1.0, 0.0, 0.0, -1.0, 1.0, 0.0, 0.0, -1.0, 1.0, 0.0, 0.0, -1.0, 1.0, 0.0, 0.0, -1.0, 1.0, 0.0, 0.0, -1.0, 1.0, 0.0, 0.0, -1.0, 1.0, 0.0, 0.0, -1.0, 1.0, 0.0, 0.0, -1.0, 1.0, 0.0, 0.0, -1.0, 1.0, 0.0, 0.0, -1.0, 1.0, 0.0, 0.0, -1.0, 1.0, 0.0, 0.0, -1.0, 1.0, 0.0, 0.0, -1.0, 1.0, 0.0, 0.0, -1.0, 1.0, 0.0, 0.0, -1.0, 1.0, 0.0, 0.0, -1.0, 1.0, 0.0, 0.0, -1.0, 1.0, 0.0, 0.0, -1.0, 1.0, 0.0, 0.0, -1.0, 1.0, 0.0, 0.0, -1.0, 1.0, 0.0, 0.0, -1.0, 1.0, 0.0, 0.0, -1.0, 1.0, 0.0, 0.0, -1.0, 1.0, 0.0, 0.0, -1.0, 1.0, 0.0, 0.0, -1.0, 1.0, 0.0, 0.0, -1.0, 1.0, 0.0, 0.0, -1.0, 1.0, 0.0, 0.0, -1.0, 1.0, 0.0, 0.0, -1.0, 1.0, 0.0, 0.0, -1.0, 1.0, 0.0, 0.0, -1.0, 1.0, 0.0, 0.0, -1.0, 1.0, 0.0, 0.0, -1.0, 1.0, 0.0, 0.0, -1.0, 1.0, 0.0, 0.0, -1.0, 1.0, 0.0, 0.0, -1.0, 1.0, 0.0, 0.0, -1.0, 1.0, 0.0, 0.0, -1.0, 1.0, 0.0, 0.0, -1.0, 1.0, 0.0, 0.0, -1.0, 1.0, 0.0, 0.0, -1.0, 1.0, 0.0, 0.0, -1.0, 1.0, 0.0, 0.0, -1.0, 1.0, 0.0, 0.0, -1.0, 1.0, 0.0, 0.0, -1.0, 1.0, 0.0, 0.0, -1.0, 1.0, 0.0, 0.0, -1.0, 1.0, 0.0, 0.0, -1.0, 1.0, 0.0, 0.0, -1.0, 1.0, 0.0, 0.0, -1.0, 1.0, 0.0, 0.0, -1.0, 1.0, 0.0, 0.0, -1.0, 1.0, 0.0, 0.0, -1.0, 1.0, 0.0, 0.0, -1.0, 1.0, 0.0, 0.0, -1.0, 1.0, 0.0, 0.0, -1.0, 1.0, 0.0, 0.0, -1.0, 1.0, 0.0, 0.0, -1.0, 1.0, 0.0, 0.0, -1.0, 1.0, 0.0, 0.0, -1.0, 1.0, 0.0, 0.0, -1.0, 1.0, 0.0, 0.0, -1.0, 1.0, 0.0, 0.0, -1.0, 1.0, 0.0, 0.0, -1.0, 1.0, 0.0, 0.0, -1.0, 1.0, 0.0, 0.0, -1.0, 1.0, 0.0, 0.0, -1.0, 1.0, 0.0, 0.0, -1.0, 0.111841, 0.987412, 0.111841, -1.0, 0.111841, 0.987412, 0.111841, -1.0, 0.111841, 0.987412, 0.111841, -1.0, 0.112292, 0.991388, 0.0673751, -1.0, 0.112292, 0.991389, 0.0673751, -1.0, 0.112292, 0.991388, 0.0673751, -1.0, 0.11254, 0.993582, 0.0114123, -1.0, 0.112541, 0.993592, -0.0104536, -1.0, 0.112519, 0.993395, 0.0225038, -1.0, 0.112519, 0.993395, -0.0225032, -1.0, 0.112519, 0.993395, -0.0225032, -1.0, 0.112519, 0.993395, -0.0225032, -1.0, 1.0, 0.0, 0.0, -1.0, 1.0, 0.0, 0.0, -1.0, 1.0, 0.0, 0.0, -1.0, 1.0, 0.0, 0.0, -1.0, -0.111841, 0.987412, 0.111841, 1.0, -0.111841, 0.987412, 0.111841, 1.0, -0.111841, 0.987412, 0.111841, 1.0, -0.112292, 0.991389, 0.0673751, 1.0, -0.112292, 0.991388, 0.0673751, 1.0, -0.112292, 0.991388, 0.0673751, 1.0, -0.112541, 0.993592, -0.0104536, 1.0, -0.11254, 0.993582, 0.0114123, 1.0, -0.112519, 0.993395, 0.0225039, 1.0, -0.112519, 0.993395, -0.0225032, 1.0, -0.112519, 0.993395, -0.0225032, 1.0, -0.112519, 0.993395, -0.0225032, 1.0, 1.0, 0.0, 0.0, -1.0, 1.0, 0.0, 0.0, -1.0, 1.0, 0.0, 0.0, -1.0, 1.0, 0.0, 0.0, -1.0, 1.0, 0.0, 0.0, -1.0, 1.0, 0.0, 0.0, -1.0, 1.0, 0.0, 0.0, -1.0, 1.0, 0.0, 0.0, -1.0, 1.0, 0.0, 0.0, -1.0, 1.0, 0.0, 0.0, -1.0, 1.0, 0.0, 0.0, -1.0, 1.0, 0.0, 0.0, -1.0, 1.0, 0.0, 0.0, -1.0, 1.0, 0.0, 0.0, -1.0, 1.0, 0.0, 0.0, -1.0, 1.0, 0.0, 0.0, -1.0, 1.0, 0.0, 0.0, -1.0, 1.0, 0.0, 0.0, -1.0, 1.0, 0.0, 0.0, -1.0, 1.0, 0.0, 0.0, -1.0, 1.0, 0.0, 0.0, -1.0, 1.0, 0.0, 0.0, -1.0, 1.0, 0.0, 0.0, -1.0, 1.0, 0.0, 0.0, -1.0, -0.111841, 0.987412, -0.111841, 1.0, -0.111841, 0.987412, -0.111841, 1.0, -0.111841, 0.987412, -0.111841, 1.0, 1.0, 0.0, 0.0, -1.0, 1.0, 0.0, 0.0, -1.0, 1.0, 0.0, 0.0, -1.0, 1.0, 0.0, 0.0, -1.0, 1.0, 0.0, 0.0, -1.0, 1.0, 0.0, 0.0, -1.0, 1.0, 0.0, 0.0, -1.0, 0.111841, 0.987412, -0.111841, -1.0, 0.111841, 0.987412, -0.111841, -1.0, 0.111841, 0.987412, -0.111841, -1.0, 1.0, 0.0, 0.0, -1.0, 1.0, 0.0, 0.0, -1.0, 1.0, 0.0, 0.0, -1.0, 1.0, 0.0, 0.0, -1.0, 1.0, 0.0, 0.0, -1.0, 1.0, 0.0, 0.0, -1.0, 1.0, 0.0, 0.0, -1.0, 1.0, 0.0, 0.0, -1.0, 1.0, 0.0, 0.0, -1.0, 1.0, 0.0, 0.0, -1.0, 1.0, 0.0, 0.0, -1.0, 1.0, 0.0, 0.0, -1.0, 1.0, 0.0, 0.0, -1.0, 1.0, 0.0, 0.0, -1.0, 1.0, 0.0, 0.0, -1.0, 1.0, 0.0, 0.0, -1.0, 1.0, 0.0, 0.0, -1.0, 1.0, 0.0, 0.0, -1.0, 1.0, 0.0, 0.0, -1.0, 1.0, 0.0, 0.0, -1.0, 1.0, 0.0, 0.0, -1.0, 1.0, 0.0, 0.0, -1.0, 1.0, 0.0, 0.0, -1.0, 1.0, 0.0, 0.0, -1.0, 1.0, 0.0, 0.0, -1.0, 1.0, 0.0, 0.0, -1.0, 1.0, 0.0, 0.0, -1.0, 1.0, 0.0, 0.0, -1.0, 1.0, 0.0, 0.0, -1.0, 1.0, 0.0, 0.0, -1.0, 1.0, 0.0, 0.0, -1.0, 1.0, 0.0, 0.0, -1.0, 1.0, 0.0, 0.0, -1.0, 1.0, 0.0, 0.0, -1.0, 1.0, 0.0, 0.0, -1.0, 1.0, 0.0, 0.0, -1.0, 1.0, 0.0, 0.0, -1.0, 1.0, 0.0, 0.0, -1.0, 1.0, 0.0, 0.0, -1.0, 1.0, 0.0, 0.0, -1.0, 1.0, 0.0, 0.0, -1.0, 1.0, 0.0, 0.0, -1.0, 1.0, 0.0, 0.0, -1.0, 1.0, 0.0, 0.0, -1.0, 0.112292, 0.991389, 0.0673751, -1.0, 0.112292, 0.991388, 0.0673751, -1.0, 0.112292, 0.991389, 0.0673751, -1.0, 0.112519, 0.993395, 0.0225039, -1.0, 0.112519, 0.993395, 0.0225039, -1.0, 0.112519, 0.993395, 0.0225039, -1.0, 0.112519, 0.993395, -0.0225033, -1.0, 0.112292, 0.991389, -0.0673746, -1.0, -0.112292, 0.991389, 0.0673751, 1.0, -0.112292, 0.991388, 0.0673751, 1.0, -0.112292, 0.991389, 0.0673751, 1.0, -0.112519, 0.993395, 0.0225039, 1.0, -0.112519, 0.993395, 0.0225039, 1.0, -0.112519, 0.993395, 0.0225039, 1.0, -0.112519, 0.993395, -0.0225033, 1.0, -0.112292, 0.991389, -0.0673746, 1.0, 1.0, 0.0, 0.0, -1.0, 1.0, 0.0, 0.0, -1.0, 1.0, 0.0, 0.0, -1.0, 1.0, 0.0, 0.0, -1.0, 1.0, 0.0, 0.0, -1.0, 1.0, 0.0, 0.0, -1.0, 1.0, 0.0, 0.0, -1.0, 1.0, 0.0, 0.0, -1.0, 1.0, 0.0, 0.0, -1.0, 1.0, 0.0, 0.0, -1.0, 1.0, 0.0, 0.0, -1.0, 1.0, 0.0, 0.0, -1.0, 1.0, 0.0, 0.0, -1.0, 1.0, 0.0, 0.0, -1.0),
		null, ; no Vertex Colors,
		Vector2Array(0.625, 0.3, 0.375, 0.25, 0.375, 0.3, 0.375, 0.25, 0.625, 0.25, 0.375, 0.25, 0.375, 0.45, 0.375, 0.5, 0.375, 0.45, 0.375, 0.5, 0.625, 0.5, 0.375, 0.5, 0.375, 0.25, 0.625, 0.3, 0.375, 0.3, 0.625, 0.25, 0.625, 0.3, 0.625, 0.3, 0.625, 0.25, 0.625, 0.3, 0.625, 0.3, 0.625, 0.25, 0.625, 0.3, 0.625, 0.25, 0.625, 0.3, 0.625, 0.25, 0.375, 0.5, 0.625, 0.5, 0.375, 0.5, 0.375, 0.5, 0.625, 0.5, 0.375, 0.5, 0.375, 0.5, 0.625, 0.5, 0.375, 0.5, 0.375, 0.5, 0.625, 0.5, 0.375, 0.5, 0.375, 0.45, 0.375, 0.5, 0.375, 0.45, 0.375, 0.45, 0.375, 0.5, 0.375, 0.45, 0.375, 0.5, 0.375, 0.45, 0.375, 0.5, 0.375, 0.25, 0.625, 0.25, 0.375, 0.25, 0.375, 0.25, 0.625, 0.25, 0.375, 0.25, 0.375, 0.25, 0.625, 0.25, 0.375, 0.25, 0.375, 0.25, 0.625, 0.25, 0.375, 0.25, 0.375, 0.25, 0.375, 0.3, 0.375, 0.25, 0.375, 0.3, 0.375, 0.35, 0.375, 0.35, 0.375, 0.4, 0.375, 0.4, 0.375, 0.45, 0.375, 0.3, 0.375, 0.25, 0.375, 0.35, 0.375, 0.4, 0.375, 0.45, 0.375, 0.3, 0.375, 0.25, 0.375, 0.35, 0.375, 0.4, 0.375, 0.4, 0.375, 0.4, 0.375, 0.3, 0.375, 0.25, 0.375, 0.35, 0.375, 0.4, 0.375, 0.45, 0.625, 0.45, 0.625, 0.5, 0.625, 0.5, 0.625, 0.4, 0.625, 0.4, 0.625, 0.4, 0.625, 0.35, 0.625, 0.4, 0.625, 0.4, 0.625, 0.35, 0.625, 0.35, 0.625, 0.45, 0.625, 0.5, 0.625, 0.4, 0.625, 0.45, 0.625, 0.45, 0.625, 0.35, 0.625, 0.4, 0.625, 0.4, 0.625, 0.45, 0.625, 0.5, 0.625, 0.5, 0.625, 0.45, 0.625, 0.4, 0.625, 0.4, 0.625, 0.35, 0.625, 0.4, 0.625, 0.35, 0.625, 0.45, 0.625, 0.5, 0.625, 0.5, 0.625, 0.4, 0.625, 0.45, 0.625, 0.35, 0.625, 0.4, 0.625, 0.4, 0.625, 0.3, 0.625, 0.35, 0.625, 0.35, 0.625, 0.45, 0.625, 0.5, 0.625, 0.4, 0.625, 0.45, 0.625, 0.35, 0.625, 0.4, 0.625, 0.4, 0.625, 0.3, 0.625, 0.35, 0.375, 0.45, 0.625, 0.5, 0.375, 0.5, 0.375, 0.4, 0.625, 0.45, 0.375, 0.45, 0.375, 0.35, 0.625, 0.4, 0.375, 0.4, 0.375, 0.3, 0.625, 0.35, 0.375, 0.35, 0.375, 0.25, 0.375, 0.3, 0.375, 0.35, 0.375, 0.4, 0.625, 0.5, 0.375, 0.45, 0.375, 0.5, 0.625, 0.45, 0.375, 0.4, 0.375, 0.45, 0.625, 0.4, 0.375, 0.35, 0.375, 0.4, 0.625, 0.35, 0.375, 0.3, 0.375, 0.35, 0.625, 0.4, 0.625, 0.45, 0.625, 0.45, 0.625, 0.4, 0.625, 0.45, 0.625, 0.45, 0.625, 0.4, 0.625, 0.45, 0.625, 0.45, 0.625, 0.45, 0.625, 0.45, 0.625, 0.45, 0.625, 0.45, 0.625, 0.45, 0.625, 0.45, 0.625, 0.45, 0.625, 0.4, 0.625, 0.4, 0.625, 0.4, 0.625, 0.4, 0.625, 0.4, 0.625, 0.4, 0.625, 0.45, 0.625, 0.45, 0.625, 0.3, 0.625, 0.25, 0.375, 0.25, 0.375, 0.25, 0.625, 0.25, 0.625, 0.25, 0.375, 0.5, 0.375, 0.5, 0.625, 0.5, 0.625, 0.5, 0.375, 0.25, 0.625, 0.25, 0.625, 0.3, 0.625, 0.25, 0.625, 0.25, 0.625, 0.25, 0.625, 0.3, 0.375, 0.5, 0.625, 0.5, 0.625, 0.5, 0.375, 0.5, 0.625, 0.5, 0.625, 0.5, 0.375, 0.5, 0.625, 0.5, 0.625, 0.5, 0.375, 0.5, 0.625, 0.5, 0.625, 0.5, 0.375, 0.45, 0.375, 0.5, 0.375, 0.5, 0.375, 0.5, 0.375, 0.5, 0.375, 0.25, 0.625, 0.25, 0.625, 0.25, 0.375, 0.25, 0.625, 0.25, 0.625, 0.25, 0.375, 0.25, 0.625, 0.25, 0.625, 0.25, 0.375, 0.25, 0.625, 0.25, 0.625, 0.25, 0.625, 0.4, 0.625, 0.35, 0.625, 0.45, 0.625, 0.45, 0.625, 0.4, 0.625, 0.4, 0.625, 0.35, 0.625, 0.35, 0.625, 0.4, 0.625, 0.4, 0.625, 0.35, 0.375, 0.45, 0.625, 0.45, 0.625, 0.5, 0.375, 0.4, 0.625, 0.4, 0.625, 0.45, 0.625, 0.35, 0.625, 0.35, 0.625, 0.5, 0.625, 0.45, 0.375, 0.45, 0.625, 0.45, 0.625, 0.4, 0.375, 0.4, 0.625, 0.35, 0.625, 0.35, 0.625, 0.4, 0.625, 0.4, 0.625, 0.45, 0.625, 0.4, 0.625, 0.4, 0.625, 0.45, 0.625, 0.4, 0.625, 0.45, 0.625, 0.45, 0.625, 0.45, 0.625, 0.4, 0.625, 0.4, 0.625, 0.4, 0.625, 0.45),
		null, ; No UV2,
		null, ; No Bones,
		null, ; No Weights,
		IntArray(0, 2, 1, 3, 5, 4, 6, 8, 7, 9, 11, 10, 12, 14, 13, 15, 17, 16, 18, 20, 19, 21, 19, 22, 23, 22, 24, 25, 24, 17, 26, 28, 27, 29, 31, 30, 32, 34, 33, 35, 37, 36, 38, 40, 39, 41, 38, 42, 43, 41, 44, 45, 43, 46, 47, 49, 48, 50, 52, 51, 53, 55, 54, 56, 58, 57, 59, 61, 60, 62, 60, 63, 64, 63, 65, 66, 65, 67, 61, 69, 68, 60, 68, 70, 63, 70, 71, 65, 71, 72, 69, 74, 73, 68, 73, 75, 70, 75, 76, 77, 78, 38, 74, 80, 79, 73, 79, 81, 75, 81, 82, 76, 82, 83, 84, 86, 85, 87, 89, 88, 90, 92, 91, 24, 94, 93, 95, 96, 86, 97, 99, 98, 100, 102, 101, 22, 100, 94, 103, 105, 104, 106, 108, 107, 109, 110, 97, 19, 111, 100, 112, 114, 113, 115, 112, 116, 117, 119, 118, 120, 122, 121, 123, 85, 124, 125, 123, 126, 127, 129, 128, 130, 127, 131, 132, 134, 133, 135, 137, 136, 138, 140, 139, 141, 143, 142, 144, 59, 62, 145, 62, 64, 146, 64, 66, 147, 66, 8, 148, 150, 149, 151, 153, 152, 154, 156, 155, 157, 159, 158, 160, 162, 161, 163, 165, 164, 166, 168, 167, 169, 171, 170, 172, 174, 173, 175, 177, 176, 178, 180, 179, 181, 183, 182, 184, 186, 185, 187, 189, 188, 6, 7, 190, 191, 193, 192, 194, 196, 195, 15, 16, 197, 18, 19, 21, 21, 22, 23, 23, 24, 25, 198, 200, 199, 201, 203, 202, 204, 206, 205, 207, 209, 208, 210, 212, 211, 213, 215, 214, 72, 214, 216, 67, 216, 217, 8, 217, 7, 218, 220, 219, 221, 223, 222, 224, 226, 225, 227, 229, 228, 59, 60, 62, 62, 63, 64, 64, 65, 66, 66, 67, 8, 61, 68, 60, 60, 70, 63, 63, 71, 65, 65, 72, 67, 69, 73, 68, 68, 75, 70, 70, 76, 71, 71, 213, 72, 74, 79, 73, 73, 81, 75, 75, 82, 76, 76, 83, 213, 84, 85, 123, 87, 88, 230, 94, 125, 93, 24, 93, 17, 95, 86, 84, 102, 84, 101, 231, 92, 90, 22, 94, 24, 116, 96, 95, 232, 234, 233, 109, 97, 231, 19, 100, 22, 112, 113, 116, 115, 116, 235, 236, 238, 237, 20, 111, 19, 123, 124, 126, 125, 126, 239, 93, 239, 240, 17, 240, 16, 241, 243, 242, 244, 246, 245, 138, 139, 247, 14, 248, 13, 144, 62, 145, 145, 64, 146, 146, 66, 147, 147, 8, 6, 249, 251, 250, 252, 254, 253, 154, 155, 255, 256, 2, 0, 257, 259, 258, 260, 262, 261, 166, 167, 263, 169, 170, 264, 172, 173, 265, 175, 176, 266, 178, 179, 267, 268, 270, 269)
	],
	"morph_arrays":[]
}

[node type="Spatial" name="Scene"]

[node name="Cube" type="MeshInstance" parent="."]

mesh = SubResource(3)
visible = true
transform = Transform(1.0, 0.0, 0.0, 0.0, 1.0, 0.0, 0.0, 0.0, 1.0, 0.0, 0.0, 0.0)
